<?xml version="1.0" encoding="utf-8"?>
<!-- Generator: Adobe Illustrator 22.0.1, SVG Export Plug-In . SVG Version: 6.00 Build 0)  -->
<svg version="1.1" xmlns="http://www.w3.org/2000/svg" xmlns:xlink="http://www.w3.org/1999/xlink" x="0px" y="0px"
	 viewBox="0 0 24 24" enable-background="new 0 0 24 24" xml:space="preserve">
<g id="Ebene_1">
	<path d="M7,5.6c0.9,0,1.4,0.3,2,0.6C9.8,6.6,10.6,7,12,7s2.2-0.4,3-0.8c0.6-0.3,1.2-0.6,2-0.6V3.7c-1.3,0-2.1,0.4-2.9,0.8
		c-0.6,0.3-1.2,0.6-2,0.6c-0.9,0-1.4-0.3-2-0.6C9.2,4.1,8.4,3.7,7,3.7S4.8,4.1,4,4.5C3.4,4.8,2.9,5.1,2,5.1V7c1.3,0,2.2-0.4,3-0.8
		C5.6,5.9,6.1,5.6,7,5.6z"/>
	<path d="M7,10c0.9,0,1.4,0.3,2,0.6c0.8,0.4,1.6,0.8,3,0.8s2.2-0.4,3-0.8c0.6-0.3,1.2-0.6,2-0.6v-2c-1.3,0-2.1,0.4-2.9,0.8
		c-0.6,0.3-1.1,0.6-2,0.6s-1.4-0.3-2-0.6C9.2,8.5,8.4,8.1,7,8.1S4.8,8.5,4,8.9C3.4,9.2,2.9,9.5,2,9.5v2c1.3,0,2.2-0.4,3-0.8
		C5.6,10.3,6.1,10,7,10z"/>
	<path d="M7,14.5c0.9,0,1.4,0.3,2,0.6c0.8,0.4,1.6,0.8,3,0.8s2.2-0.4,3-0.8c0.6-0.3,1.1-0.6,2-0.6v-1.9c-1.3,0-2.1,0.4-2.9,0.8
		c-0.6,0.3-1.2,0.6-2,0.6c-0.9,0-1.4-0.3-2-0.6c-0.8-0.4-1.6-0.8-3-0.8S4.8,13,4,13.3c-0.6,0.3-1.2,0.6-2,0.6v2c1.3,0,2.2-0.4,3-0.8
		C5.6,14.7,6.1,14.5,7,14.5z"/>
	<path d="M16.9,17c-1.3,0-2.1,0.4-2.9,0.8c-0.6,0.3-1.2,0.6-2,0.6c-0.9,0-1.4-0.3-2-0.6C9.2,17.4,8.4,17,7,17s-2.2,0.4-3,0.8
		c-0.6,0.3-1.2,0.6-2,0.6v2c1.3,0,2.2-0.4,3-0.8c0.6-0.3,1.2-0.6,2-0.6s1.4,0.3,2,0.6c0.8,0.4,1.6,0.8,3,0.8s2.2-0.4,3-0.8
		c0.6-0.3,1.2-0.6,2-0.6V17z"/>
	<polygon points="18.8,3.7 18.8,20.3 23.8,20.3 20.8,3.7 	"/>
	<rect fill="none" width="24" height="24"/>
</g>
<g id="Ebene_1_Kopie" display="none">
	<path display="inline" d="M4.3,17.8c-0.6,0.4-1.1,0.6-2,0.6v2c1.4,0,2.2-0.4,3-0.8c0.6-0.4,1.1-0.6,2-0.6c0.9,0,1.4,0.3,2.1,0.6
		c0.8,0.4,1.6,0.8,2.9,0.8s2.2-0.4,2.9-0.8c0.7-0.4,1.2-0.6,2-0.6c0.9,0,1.4,0.3,2.1,0.6c0.8,0.4,1.6,0.8,2.9,0.8v-2
		c-0.9,0-1.4-0.3-2-0.6c-0.8-0.4-1.6-0.8-3-0.8c-1.4,0-2.2,0.4-2.9,0.8c-0.7,0.4-1.2,0.6-2.1,0.6c-0.9,0-1.4-0.3-2.1-0.6
		C9.5,17.4,8.6,17,7.3,17S5.1,17.4,4.3,17.8z M4.3,13.3c-0.6,0.4-1.1,0.6-2,0.6v1.9c1.4,0,2.2-0.4,3-0.8c0.6-0.4,1.1-0.6,2-0.6
		s1.4,0.3,2.1,0.6c0.8,0.4,1.6,0.8,2.9,0.8s2.2-0.4,2.9-0.8c0.7-0.4,1.1-0.6,2-0.6s1.4,0.3,2.1,0.6c0.8,0.4,1.6,0.8,2.9,0.8v-1.9
		c-0.9,0-1.4-0.3-2-0.6c-0.8-0.4-1.6-0.8-3-0.8c-1.4,0-2.2,0.4-2.9,0.8c-0.7,0.4-1.2,0.6-2.1,0.6c-0.9,0-1.4-0.3-2.1-0.6
		c-0.8-0.4-1.6-0.8-2.9-0.8S5.1,13,4.3,13.3z M2.3,5V7c1.4,0,2.2-0.4,3-0.8c0.6-0.3,1.1-0.6,2-0.6c0.9,0,1.4,0.3,2.1,0.6
		C10.1,6.6,10.9,7,12.3,7s2.2-0.4,2.9-0.8c0.7-0.3,1.2-0.6,2-0.6c0.9,0,1.4,0.3,2.1,0.6C20.1,6.6,20.9,7,22.3,7V5.1
		c-0.9,0-1.4-0.3-2-0.6c-0.8-0.4-1.6-0.8-3-0.8c-1.4,0-2.2,0.4-2.9,0.8c-0.7,0.3-1.2,0.6-2.1,0.6c-0.9,0-1.4-0.3-2.1-0.6
		C9.5,4.1,8.7,3.7,7.3,3.7s-2.2,0.4-3,0.8C3.7,4.8,3.2,5,2.3,5z M4.3,8.9c-0.6,0.4-1.1,0.6-2,0.6v2c1.4,0,2.2-0.4,3-0.8
		c0.6-0.4,1.1-0.6,2-0.6c0.9,0,1.4,0.3,2.1,0.6c0.8,0.4,1.6,0.8,2.9,0.8s2.2-0.4,2.9-0.8c0.7-0.4,1.2-0.6,2-0.6
		c0.9,0,1.4,0.3,2.1,0.6c0.8,0.4,1.6,0.8,2.9,0.8V9.5c-0.9,0-1.4-0.3-2-0.6c-0.8-0.4-1.6-0.8-3-0.8c-1.4,0-2.2,0.4-2.9,0.8
		c-0.7,0.4-1.1,0.6-2.1,0.6s-1.4-0.3-2.1-0.6C9.5,8.5,8.6,8.1,7.3,8.1C5.9,8.1,5.1,8.5,4.3,8.9z"/>
	
		<rect x="1.1" y="2.4" transform="matrix(-1 -2.368384e-11 2.368384e-11 -1 12.5417 18.6958)" display="inline" fill="#FFFFFF" width="10.3" height="13.9"/>
	<g display="inline">
		<g>
			<polygon points="6.1,21.3 9.5,2.7 13.2,2.7 13.2,21.3 			"/>
			<path fill="#FFFFFF" d="M12.2,3.7v16.7H7.3l3-16.7H12.2 M14.1,1.7h-1.9h-1.9H8.7L8.4,3.3L5.4,20L5,22.3h2.3h4.9h1.9v-1.9V3.7V1.7
				L14.1,1.7z"/>
		</g>
	</g>
	<g display="inline">
		<polygon points="3.7,17.8 13.7,9.9 12.7,8.6 18.8,7.8 16.5,13.5 15.5,12.2 5.5,20.1 		"/>
		<path fill="#FFFFFF" d="M18,8.4l-1.6,4.1l-0.8-1l-10,7.9l-1.2-1.5l10-7.9l-0.8-1L18,8.4 M19.6,7.1l-1.7,0.2L13.5,8l-1.7,0.2
			l1.1,1.4L13,9.8l-9.2,7.3L3,17.7l0.6,0.8L4.8,20l0.6,0.8l0.8-0.6l9.2-7.3l0.2,0.2l1.1,1.4l0.6-1.6l1.6-4.1L19.6,7.1L19.6,7.1z"/>
	</g>
</g>
</svg>
